%YAML 1.1
%TAG !u! tag:unity3d.com,2011:
--- !u!221 &22100000
AnimatorOverrideController:
  m_ObjectHideFlags: 0
  m_CorrespondingSourceObject: {fileID: 0}
  m_PrefabInternal: {fileID: 0}
  m_Name: MinionSeven
  m_Controller: {fileID: 9100000, guid: edb40fa8b1d23be43b5570b0bc618a00, type: 2}
  m_Clips:
  - m_OriginalClip: {fileID: 7400000, guid: da249134bc27d584898274a584a3f4ef, type: 2}
    m_OverrideClip: {fileID: 7400000, guid: d3c410749e42c154798cbfc940187a7c, type: 2}
  - m_OriginalClip: {fileID: 7400000, guid: dbe2cd2198999f54db7b5a2d8d81bcb3, type: 2}
    m_OverrideClip: {fileID: 7400000, guid: c31f92f0c9570bb42936d0d07ce1d0d3, type: 2}
  - m_OriginalClip: {fileID: 7400000, guid: 459c862b9cfc1a54a9eefb365137f00c, type: 2}
    m_OverrideClip: {fileID: 7400000, guid: cf34a8a6afadf0648a5ebf05f34baf7b, type: 2}
